<?xml version="1.0" ?><svg height="128" viewBox="0 0 128 128" width="128" xmlns="http://www.w3.org/2000/svg"><defs><style>
      .cls-1 {
        fill: #e9faff;
      }

      .cls-2 {
        fill: #e3bab1;
      }

      .cls-3 {
        fill: #ffe5e1;
      }

      .cls-4 {
        fill: #fff;
      }

      .cls-5 {
        fill: #e8f0fc;
      }

      .cls-12, .cls-6 {
        fill: none;
        stroke: #556193;
        stroke-width: 2px;
      }

      .cls-6 {
        stroke-miterlimit: 10;
      }

      .cls-7 {
        fill: #c0caf9;
      }

      .cls-8 {
        fill: #ffdcb4;
      }

      .cls-9 {
        fill: #89d3ff;
      }

      .cls-10 {
        fill: #ffd9d2;
      }

      .cls-11 {
        fill: #556193;
      }

      .cls-12 {
        stroke-linejoin: round;
      }

      .cls-13 {
        fill: #ff859e;
      }

      .cls-14 {
        fill: #f97594;
      }

      .cls-15 {
        fill: #ffd0ca;
      }

      .cls-16 {
        fill: #acbaea;
      }

      .cls-17 {
        fill: #ffcba4;
      }
    </style></defs><title/><g id="circle"><circle class="cls-1" cx="66.5" cy="64.5" r="57.5"/></g><g id="icon"><g><path class="cls-2" d="M21.15,73.81c-2.32,2.14-4.21.32-4.21.32a3.86,3.86,0,0,1-2.67,1.17,3.86,3.86,0,0,1-3.56-2.63,3.86,3.86,0,0,1-3.37-3.82,3.78,3.78,0,0,1,.4-1.68,3.86,3.86,0,0,1-1.9-7.07A3.85,3.85,0,0,1,4.4,52.84,3.86,3.86,0,0,1,6.71,46l.38,0H5.62a3.86,3.86,0,0,1,2.79-6.44,3.74,3.74,0,0,1,1.82.52,3.86,3.86,0,0,1,3.2-5.9,3.92,3.92,0,0,1,2.52,1s0-.06,0-.09a3.75,3.75,0,0,1,7-1.94s0-.1,0-.15a3.87,3.87,0,0,1,3.78-3.87h.38A3.88,3.88,0,0,1,30.9,33s0,.1,0,.15a3.75,3.75,0,0,1,7,1.94.28.28,0,0,1,0,.09,3.92,3.92,0,0,1,2.52-1,3.86,3.86,0,0,1,3.2,5.9,3.78,3.78,0,0,1,1.82-.52A3.86,3.86,0,0,1,48.22,46l.38,0a3.88,3.88,0,0,1,3.78,3.88,3.84,3.84,0,0,1-1.46,3,3.85,3.85,0,0,1-1.44,7.26,3.86,3.86,0,0,1-1.9,7.07A3.91,3.91,0,0,1,48,68.85a3.86,3.86,0,0,1-3.36,3.82,3.7,3.7,0,0,1-6.24,1.46s-1.89,1.82-4.2-.32"/><path class="cls-3" d="M14.8,52.49a3,3,0,0,0,1.49-1.32c.58-1-.15-2.55-.27-2.9a4,4,0,0,0,2.87-.57A4.39,4.39,0,0,0,20.68,44a4.6,4.6,0,0,0,2.7,1.72,4.84,4.84,0,0,0,4.07-1.16,3.44,3.44,0,0,0,6.52-1,4.89,4.89,0,0,0,2.37,3.79,4.52,4.52,0,0,0,3.1.38A5.85,5.85,0,0,0,40,52.31v.18l.52,4.58a19.6,19.6,0,0,1-4.26,14c-.17.21-.36.42-.54.63l-3,2.82a7.52,7.52,0,0,1-10.3.08l-3.07-2.84c-.2-.21-.39-.42-.57-.64a19.57,19.57,0,0,1-4.44-14.3l.41-4.25Z"/><path class="cls-4" d="M22.1,73.58a8.34,8.34,0,0,0,10.79.82,3.78,3.78,0,0,0,.56-.49S38,69,39,65.39l1-5a8.67,8.67,0,0,1-5.17,2c-3.62,0-3.62-2.72-7.25-2.72S24,62.37,20.32,62.37A10.39,10.39,0,0,1,15,61l.68,4.72A33.21,33.21,0,0,0,22.1,73.58Z"/><path class="cls-5" d="M37.51,61.83,37,64.39c-1,3.62-5.55,8.52-5.55,8.52a3.78,3.78,0,0,1-.56.49,8.42,8.42,0,0,1-7.61,1.15,8.33,8.33,0,0,0,9.61-.15,3.78,3.78,0,0,0,.56-.49S38,69,39,65.39l1-5A10.28,10.28,0,0,1,37.51,61.83Z"/><path class="cls-6" d="M14.35,59.74a8.8,8.8,0,0,0,5.83,2.63c3.62,0,3.62-2.69,7.24-2.69s3.62,2.69,7.24,2.69a9.18,9.18,0,0,0,5.76-2.44"/><path class="cls-7" d="M39.9,82.45a45,45,0,0,1-2.42,4.6A33.83,33.83,0,0,1,34,91.71c-1.26,1.47-2.52,3.19-4.27,4.1-3.24,1.67-6.4-2.52-8-4.83a38.88,38.88,0,0,1-4.48-8.57,36,36,0,0,0-6.71,3.73c6,13.07,14.4,21.17,25.71,27.8,6.68-4.36,12.78-10.43,16.35-17.62A27.36,27.36,0,0,0,39.9,82.45Z"/><path class="cls-7" d="M119.4,85.86a29.15,29.15,0,0,0-8.62-5.25A6.12,6.12,0,0,1,107,74.93V72.6l-.3,0c-1.79,1.73-2.74,2.72-5.2,2.74s-3.41-1-5.2-2.74l-.3,0v2.33a6.12,6.12,0,0,1-3.78,5.68C83.31,84.1,77.46,92.26,76,101.71c3.94,3.57,8.23,9.69,13,15.18C102.87,110.73,113.86,100.06,119.4,85.86Z"/><path class="cls-8" d="M65.14,122.7c11.09,0,20.81-2.78,29.31-8.46L94,101.37c-1.26-7.88-7.07-14-14.51-17l-4.27-1.59c-2-.77-3.25-1.64-3.25-4.76V74.81a9.86,9.86,0,0,1-6.73,2.67A10.47,10.47,0,0,1,58,74.54V73.17l.24,4.9A5.12,5.12,0,0,1,55,82.83L50.7,84.42c-7.44,2.91-13,8.83-14.27,16.71L36,114.24C44.19,119.92,54,122.7,65.14,122.7Z"/><path class="cls-9" d="M49.26,83.9,66,105,81,83.71c-.35-.15-.71-.31-1.07-.45L75.6,81.65l-.42-.17a11,11,0,0,1-19.84.06l-.23.11-4.35,1.61C50.25,83.46,49.75,83.68,49.26,83.9Z"/><path class="cls-3" d="M56.15,45.06c-1.38,0-3.78-2.56-5.07-2.84A52.46,52.46,0,0,0,50,48.05V60.92a10,10,0,0,0,2.92,7l5,5a10.18,10.18,0,0,0,14.5-.11L77.19,68A10,10,0,0,0,80,61v-13c0-5.74-2.09-10.57-7.4-11.93C72.6,36.12,67,45.06,56.15,45.06Z"/><path class="cls-4" d="M57.93,73.12a10.28,10.28,0,0,0,13.31,1,5.43,5.43,0,0,0,.68-.59l6.89-7.11A4.24,4.24,0,0,0,80,63.48v-6.6a10.72,10.72,0,0,1-6.37,2.44c-4.48,0-4.48-3.36-8.95-3.36s-4.47,3.36-9,3.36a9.89,9.89,0,0,1-5.73-2v6.17a4.2,4.2,0,0,0,1.24,3Z"/><path class="cls-3" d="M33,77.52V73.24A11.61,11.61,0,0,1,30.73,75a5.84,5.84,0,0,1-3.85.73A10.1,10.1,0,0,1,22,74.14v3.38c.6,2.18-2.75,3.76-5.14,6a24,24,0,0,0,11,13.35,22,22,0,0,0,11.25-14C35.11,82,33,79.46,33,77.52Z"/><path class="cls-10" d="M33,77.46v-2a8.07,8.07,0,0,1-11-.21v1.35l.49.48A6.7,6.7,0,0,0,27.77,79,9.52,9.52,0,0,0,33,77.46Z"/><g><path class="cls-6" d="M31.52,56.79c2.43-2,5.1-.25,6.39-.25"/><circle class="cls-11" cx="34.5" cy="57.5" r="1.5"/></g><g><path class="cls-6" d="M24.8,56.79c-2.43-2-5.1-.25-6.39-.25"/><circle class="cls-11" cx="21.5" cy="57.5" r="1.5"/></g><path class="cls-6" d="M22.77,75.28a5.3,5.3,0,0,1-1.43,4.65c-1.93,2-6.59,3.42-10.2,6.19"/><path class="cls-6" d="M33.88,74.05s-.61,3.79,1.43,5.88,5.87,3.51,9.59,6.46"/><path class="cls-6" d="M17.42,82.69A22.06,22.06,0,0,0,28.36,96.83s8.72-4.58,11-13.22"/><path class="cls-12" d="M50.65,65.22a3.91,3.91,0,0,1-2.9,1.61,3.9,3.9,0,0,1,.39,1.67,3.86,3.86,0,0,1-3.36,3.83,3.71,3.71,0,0,1-6.24,1.46s-1.88,1.82-4.2-.32"/><path class="cls-12" d="M5.79,45.66a3.87,3.87,0,0,1,2.79-6.45,3.94,3.94,0,0,1,1.83.53,3.8,3.8,0,0,1-.59-2,3.88,3.88,0,0,1,3.79-3.87,3.79,3.79,0,0,1,2.51,1s0-.06,0-.09a3.75,3.75,0,0,1,7-2s0-.09,0-.14a3.87,3.87,0,0,1,3.78-3.87h.39a3.87,3.87,0,0,1,3.78,3.87.59.59,0,0,1,0,.14,3.76,3.76,0,0,1,7,2s0,.06,0,.09a3.77,3.77,0,0,1,2.51-1,3.86,3.86,0,0,1,3.2,5.9,3.9,3.9,0,0,1,1.83-.53,3.81,3.81,0,0,1,1.47.33"/><path class="cls-12" d="M7.27,45.66a2.47,2.47,0,0,0-.38,0A3.86,3.86,0,0,0,4.57,52.5,3.85,3.85,0,0,0,6,59.76a3.86,3.86,0,0,0,1.9,7.07,3.84,3.84,0,0,0,3,5.5A3.87,3.87,0,0,0,14.44,75a3.85,3.85,0,0,0,2.68-1.16s1.89,1.82,4.2-.32"/><path class="cls-12" d="M14.8,52.49a3,3,0,0,0,1.49-1.32c.58-1-.15-2.55-.27-2.9a4,4,0,0,0,2.87-.57A4.39,4.39,0,0,0,20.68,44a4.6,4.6,0,0,0,2.7,1.72,4.84,4.84,0,0,0,4.07-1.16,3.44,3.44,0,0,0,6.52-1,4.89,4.89,0,0,0,2.37,3.79,4.52,4.52,0,0,0,3.1.38A5.85,5.85,0,0,0,40,52.31v.18l.52,4.58a19.6,19.6,0,0,1-4.26,14c-.17.21-.36.42-.54.63l-3,2.82a7.52,7.52,0,0,1-10.3.08l-3.07-2.84c-.2-.21-.39-.42-.57-.64a19.57,19.57,0,0,1-4.44-14.3l.41-4.25Z"/><path class="cls-13" d="M106.88,74.25a7.82,7.82,0,0,1-10.73.08l-.45,3.09c-5.32,7.37-17,3.46-15.22-4.83.52-2.46,2.19-4,2.22-5.6,0-2.45-2.84-3.12-3-7.51-.07-3.16,1.55-4.24,2.11-6.57.67-2.78-.49-5,1.45-9,3-6.09,8.3-10.93,17.39-10.93h.77c9.08,0,14.7,4.84,17.68,10.93,1.95,3.94.78,6.2,1.45,9,.57,2.33,2.18,3.41,2.11,6.57-.1,4.39-3,5.06-2.95,7.51,0,1.62,1.7,3.14,2.22,5.6,1.75,8.29-9,11.45-14,5.43Z"/><path class="cls-14" d="M120.16,66.75c0-2.36,2.73-3,2.83-7.22.07-3-2.09-4.06-2.63-6.3-.64-2.66,1.08-4.83-.78-8.61-2.86-5.85-8.26-10.48-17-10.62h-.74A26.68,26.68,0,0,0,96,35a7.78,7.78,0,0,1,2.88,0h.74a17.38,17.38,0,0,1,17,10.25c1.86,3.78.14,6,.79,8.61.54,2.24,2.69,3.28,2.62,6.3-.1,4.22-2.87,4.86-2.82,7.22,0,1.55,1.63,3,2.12,5.36a6.33,6.33,0,0,1-3.83,7.57c4.11-.09,7.9-3.15,6.83-8.2C121.79,69.75,120.19,68.3,120.16,66.75Z"/><path class="cls-3" d="M114.73,53.84c.52,9-3.91,21.21-13.26,21.21S88.13,61.87,88.13,54s5.49-15.5,13.34-15.5S114.73,53.84,114.73,53.84Z"/><path class="cls-3" d="M113.11,81.74c-4-.93-6.11-3.47-6.11-5.41V71.19l-.3,0c-1.79,1.73-2.75,2.71-5.2,2.74s-3.41-1-5.2-2.74l-.3,0v5.14c.6,2.18-2.75,3.75-5.14,6l.17.54c3.63,10.7,19.06,10.27,22-.65C113.08,81.92,113.11,81.74,113.11,81.74Z"/><path class="cls-10" d="M107,76.26v-2a8.06,8.06,0,0,1-11-.22v1.35l.49.49a6.7,6.7,0,0,0,5.28,1.93A9.52,9.52,0,0,0,107,76.26Z"/><g><path class="cls-6" d="M104.92,55.59c2.43-2,5.1-.24,6.39-.24"/><circle class="cls-11" cx="107.5" cy="56.5" r="1.5"/></g><g><path class="cls-6" d="M98.2,55.59c-2.43-2-5.1-.24-6.39-.24"/><circle class="cls-11" cx="95.5" cy="56.5" r="1.5"/></g><path class="cls-6" d="M96.18,73.08s.6,3.57-1.44,5.66S88.27,82.47,84.3,85.9"/><path class="cls-6" d="M107.28,72.86s-.6,3.79,1.44,5.88,6.45,3.72,10.4,7.14"/><path class="cls-6" d="M93,80c-5.83,4-14-.22-12.52-7.41.52-2.46,2.19-4,2.22-5.6,0-2.45-2.84-3.12-3-7.51-.07-3.16,1.55-4.24,2.11-6.57.67-2.78-.49-5,1.45-9,3-6.09,8.3-10.93,17.39-10.93h.77c9.08,0,15.44,4.79,17.68,10.93,1.95,3.94.78,6.2,1.45,9,.57,2.33,2.18,3.41,2.11,6.57-.1,4.39-3,5.06-2.95,7.51,0,1.62,1.7,3.14,2.22,5.6,2,9.62-9.91,9.87-13.75,5.18"/><path class="cls-13" d="M114.32,51.89c-15.82,0-18.75-6.51-18.75-6.51C89.25,46.92,88,52,88,52S86.29,36.24,99.73,36.24C109.53,36.24,115.6,41.64,114.32,51.89Z"/><path class="cls-6" d="M90.82,81.49s.1.5.36,1.33c3.34,10.54,18.51,10.49,21.54-.15,0-.09,0-.17.07-.26"/><path class="cls-15" d="M73.61,36.59s-4.36,7.9-15.38,7.9c-1.4,0-5.13-1.43-6.45-1.72,0,0-.33,1.42-.62,2.9.22-.36.44-.69.65-1,8.55,4.56,17.44,4.95,22.58.58A12.22,12.22,0,0,0,77.58,41a21.92,21.92,0,0,1,3.14,3.68C79.9,40.71,77.7,37.64,73.61,36.59Z"/><path class="cls-7" d="M77.76,33.92s-.36-.36-1-.92H70.9l3.57-2.85C70.14,27.34,62,25,54.81,30.15,43.55,38.19,47.89,52,47.89,52H50a17.82,17.82,0,0,1,1-4.83,19.24,19.24,0,0,1,2-3.77c7.43,4,15.15,4.29,19.62.5a10.74,10.74,0,0,0,2.77-3.72,16.06,16.06,0,0,1,3.8,5.2A23.26,23.26,0,0,1,80.43,53H83C85.71,40,77.76,33.92,77.76,33.92Z"/><g><path class="cls-16" d="M73.41,38a10.61,10.61,0,0,1-2.77,3.72c-4.47,3.79-12.19,3.45-19.61-.51A19.1,19.1,0,0,0,49,45a17,17,0,0,0-1,5.41L48.12,52h1.4a17,17,0,0,1,1-5.41,19.24,19.24,0,0,1,2-3.77c7.43,4,15.15,4.29,19.62.5a10.5,10.5,0,0,0,2.76-3.7C74.36,39,73.82,38.42,73.41,38Z"/><path class="cls-16" d="M77.52,33.49c2.09,2.55,4.84,9.33,3,18l1.87.28C84.85,40.19,78.52,34.33,77.52,33.49Z"/></g><path class="cls-3" d="M80.4,52h1.29a2.55,2.55,0,0,1,2.51,3l-.5,2.69a3.81,3.81,0,0,1-2.14,2.77L80,61.34Z"/><path class="cls-3" d="M72,76.92V74.07a10.27,10.27,0,0,1-6.85,2.62c-2.67,0-5.23-2-7.15-3.84v4.06c0,2,0,3.15-1.87,3.92,0,0,2.26,6.32,8.86,6.32s8.88-6.32,8.88-6.32C72,80.06,72,79,72,76.92Z"/><path class="cls-10" d="M72,76.73v-2.5A10.28,10.28,0,0,1,58,74V75.1l.54.54a9.9,9.9,0,0,0,2.2,1.72A10.31,10.31,0,0,0,72,76.73Z"/><polygon class="cls-17" points="49 119.49 48 119.18 48 103 49 103 49 119.49"/><polygon class="cls-17" points="85 118.6 84 119.18 84 103 85 103 85 118.6"/><path class="cls-6" d="M80,52h1.63a2.54,2.54,0,0,1,2.5,3l-.49,2.69a3.84,3.84,0,0,1-2.14,2.77l-1,.57"/><path class="cls-3" d="M50.29,52H49a2.55,2.55,0,0,0-2.51,3L47,57.7a3.81,3.81,0,0,0,2.14,2.77l1.58.87Z"/><path class="cls-6" d="M50,52h-.94a2.54,2.54,0,0,0-2.5,3l.49,2.69a3.85,3.85,0,0,0,2.15,2.77l1,.57"/><line class="cls-6" x1="47" x2="47" y1="103" y2="119"/><line class="cls-6" x1="83" x2="83" y1="103" y2="119"/><g><path class="cls-6" d="M68.54,53.23a9,9,0,0,1,3.4-.93c1.58,0,2.7.83,3.66.83"/><circle class="cls-11" cx="71.5" cy="54.5" r="1.5"/></g><g><path class="cls-6" d="M61.86,53.23a8.91,8.91,0,0,0-3.39-.93c-1.58,0-2.7.83-3.66.83"/><circle class="cls-11" cx="58.5" cy="54.5" r="1.5"/></g><path class="cls-6" d="M58.23,73.41l.17,3.42a5.18,5.18,0,0,1-3.29,4.82l-4.35,1.61c-7.52,2.95-13.17,8.93-14.44,16.91l-1,14.12"/><path class="cls-6" d="M95,114.22l-.67-13.81c-1.27-8-7.16-14.2-14.68-17.15l-4.33-1.61C73.3,80.88,72,80,72,76.84V74"/><path class="cls-6" d="M74.79,81a10,10,0,0,1-18.94.47"/><path class="cls-12" d="M50,52a19.65,19.65,0,0,1,1.08-4.83,19.24,19.24,0,0,1,2-3.77c7.43,4,15.15,4.29,19.62.5a10.74,10.74,0,0,0,2.77-3.72,16.06,16.06,0,0,1,3.8,5.2C80.57,48.42,80,53,80,53"/><path class="cls-12" d="M83,53c2.76-13-5.19-19.09-5.19-19.09s-.36-.36-1-.92H71l3.57-2.85c-4.33-2.81-12.45-5.15-19.66,0C43.62,38.19,47,52,47,52"/><path class="cls-6" d="M50.17,55.65S53,59,57,59s4-3,8-3,4,3,8,3,7-3.35,7-3.35"/><polyline class="cls-6" points="80.17 83.65 63 111 63 119"/><line class="cls-6" x1="50.17" x2="66" y1="83.91" y2="106"/><line class="cls-6" x1="68" x2="68" y1="112" y2="114"/><path class="cls-5" d="M77.61,58.75,77,61.87c-1.22,4.4-6.75,10.37-6.75,10.37a5.43,5.43,0,0,1-.68.59,10.23,10.23,0,0,1-9.27,1.41A10.15,10.15,0,0,0,72,74.05a4.8,4.8,0,0,0,.68-.59s5.54-6,6.76-10.37L80.63,57A12.79,12.79,0,0,1,77.61,58.75Z"/><path class="cls-6" d="M50,52v9.23c0,5.77,7.93,12.06,7.93,12.06a10.18,10.18,0,0,0,14.5-.11S80,67,80,61.33V52"/><path class="cls-4" d="M96.1,72.58a8.34,8.34,0,0,0,10.79.82,3.78,3.78,0,0,0,.56-.49S112,68,113,64.39l1-5a8.67,8.67,0,0,1-5.17,2c-3.62,0-3.62-2.72-7.25-2.72S98,61.37,94.32,61.37A10.39,10.39,0,0,1,89,60l.68,4.72A33.21,33.21,0,0,0,96.1,72.58Z"/><path class="cls-5" d="M111.51,60.83,111,63.39c-1,3.62-5.55,8.52-5.55,8.52a3.78,3.78,0,0,1-.56.49,8.42,8.42,0,0,1-7.61,1.15,8.33,8.33,0,0,0,9.61-.15,3.78,3.78,0,0,0,.56-.49S112,68,113,64.39l1-5A10.28,10.28,0,0,1,111.51,60.83Z"/><path class="cls-6" d="M88.35,58.74a8.8,8.8,0,0,0,5.83,2.63c3.62,0,3.62-2.69,7.24-2.69s3.62,2.69,7.24,2.69a9.18,9.18,0,0,0,5.76-2.44"/><path class="cls-6" d="M96,34V45s2.81,6.25,18,6.25l.51,4.59a19.56,19.56,0,0,1-4.25,14c-.18.22-.36.43-.55.64l-3,2.82a7.51,7.51,0,0,1-10.29.08l-3.08-2.85-.57-.64a19.6,19.6,0,0,1-4.44-14.3l.42-4.24S89.94,46.53,96,45"/></g></g></svg>